'- 2.3 Textos na screen 2 , MSX , 100 Dicas para MSX , Página 24
'- Não testado
'- <Lisias Toledo> me@lisias.net

10 SCREEN 2
20 OPEN "GRP:" AS #1
30 CIRCLE (128,86),50
40 PRESET (110,84)
50 PRINT #1, "EDITORA ALEPH"
60 GOTO 60


'
55 PRESET (109,84)
56 PRINT #1, "EDITORA ALEPH"


'
10 SCREEN 2
20 OPEN "GRP:" AS #1
30 A$="EDITORA ALEPH"
40 FOR F=1 TO LEN(A$)
50   PRESET (110+(F-1)*6,84)
60   PRINT #1,MID$(A$,F,1)
70 NEXT F
80 GOTO 80


'
50 PRESET (110+(F-1)*12,84)
