'- 2.1 Cor de frente igual a cor de fundo , MSX , 100 Dicas para MSX , Página 22
'- Não testado
'- <Lisias Toledo> me@lisias.net

'
10 SCREEN 2
20 CIRCLE (128,86),50
30 COLOR 1
40 GOTO 40

'
COLOR 15,1 : SCREEN 0
