'- 5.2 Transformando PRINT em LPRINT , MSX , 100 Dicas para MSX , Página 119
'- Revisado por <Lisias Toledo> me@lisias.net
'- Digitador desconhecido

65000 REM
65001 REM Muda PRINT p/ LPRINT
65002 REM
65003 EI = 32769!
65004 B1 = PEEK(EI)   : B2 = PEEK(EI+1)
65005 B3 = PEEK(EI+2) : B4 = PEEK(EI+3)
65006 PL = B1 + 256*B2
65007 NL = B3 + 256*B4
65008 IF B1=0 AND B2=0 THEN END
65009 FOR F=EI+4 TO PL-2
65010   IF PEEK(F)<>(100+45) THEN 65012
65011      POKE F,157
65012 NEXT F
65013 EI=PL
65014 GOTO 65004
