'- 7.L Rotacionando caracteres , MSX , 100 Dicas para MSX , Página 184
'- Revisado por <Lisias Toledo> me@lisias.net
'- Digitador desconhecido

100 SCREEN 0 : WIDTH 39
110 DEF FNPC$(LI,CO)=CHR$(27)+"Y"+CHR$(LI+32)+CHR$(CO+32)
120 INPUT "LINHA:";LI
130 INPUT "COLUNA:";CO
140 INPUT "Nº CARACTERES:";TL
150 GOSUB 1000
160 PRINT : PRINT,,,,,,,,"L$=";L$
170 IF STRIG(0) THEN RUN ELSE 170
1000 '
1010 ' SUB-ROTINA PARA ENTRAR LINHA
1020 '
1030 L$ = ""
1040 PRINT FNPC$(LI,CO);"_";
1050 I$=INKEY$
1060 IF I$="" THEN 1050
1070 IF I$>=" " AND I$<="{" THEN 1230
1080 C=CO+LEN(L$):PRINT FNPC$(LI,C);
1090 IF LEN(L$)<TL THEN PRINT " "
1100 I=ASC(I$)
1110 IF I <>  8 THEN 1170        ' BS
1120   IF LEN(L$)=0 THEN 1140
1130     L$=LEFT$(L$,LEN(L$)-1)
1140   C = CO : PRINT FNPC$(LI,C);
1150   PRINT L$;"_"
1160   GOTO 1050
1170 IF I <> 12 THEN 1220        'CLS
1180   L$=""
1190   PRINT FNPC$(LI,CO);"_";
1200   PRINT STRING$(TL-1," ")
1210   GOTO 1050
1220 IF I = 13 THEN RETURN      'RETURN
1230 IF LEN(L$)<TL THEN L$=L$+I$
1240 IF LEN(L$)=TL THEN L$=LEFT$(L$,TL-1)+I$
1250 C=CO-1+LEN(L$)
1260 PRINT FNPC$(LI,C);
1270 PRINT I$;
1280 IF LEN(L$)<TL THEN PRINT"_"
1290 GOTO 1050

