'- 7.1 Diferenciando o Expert do Hotbit , MSX , 100 Dicas para MSX , Página 154
'- Não testado
'- <Lisias Toledo> me@lisias.net

100 SCREEN 0 : WIDTH 39 : PRINT
110 PRINT "  Conteúdo da ROM a partir"
120 PRINT "  do endereço 32513: ";
130 FOR F=32513 TO 32531
140  PRINT CHR$(PEEK(F));
150 NEXT F
160 X$= "é"
170 IF PEEK(32513)<>71 THEN X$="não é"
180 PRINT : PRINT : PRINT "  ";
190 PRINT "Portanto, ";X$;" um EXPERT!"
200 PRINT : PRINT
