'- Guerra nas Estrelas , TK 85 , Microcomputador Jogos , Página 75
'- status não informado pelo Digitador
'- Digitador desconhecido

2 REM
4 REM PROGRAMA PARA O TK 85
6 REM
8 REM  GUERRA NAS ESTRELAS
10 REM
12 LET X=13
14 LET Y=10
16 LET A=PEEK 16396+PEEK 16397*256+1
18 FOR N=300 TO 0 STEP -1
20 PRINT AT Y,X;"\ '\;;\' "
22 LET Y1=Y
24 LET X1=X
26 PRINT AT 21,RND*31;"*"
30 SCROLL
32 LET A$=INKEY$
34 IF A$="8" THEN LET X=X+1
36 IF A$="5" THEN LET X=X-1
38 IF X<0 THEN LET X=0
40 IF X>29 THEN LET X=29
42 PRINT AT Y1-1,X1;"   "
43 IF RND>.9 THEN PRINT AT RND*5+15,RND*25+5;"%X"
44 LET A=PEEK 16396+PEEK 16397*256+1
45 IF PEEK (A+Y*33+X+33)<>0 OR PEEK (A+Y*33+X+34)<>0 OR PEEK (A+Y*33+X+35)<>0 THEN GOTO 50
46 NEXT N
48 GOTO 120
50 PRINT AT Y,X;" \ . "
52 GOSUB 72
54 PRINT AT Y,X;" \ : "
56 GOSUB 72
58 PRINT AT Y,X;" \.:\. "
60 GOSUB 72
62 PRINT AT Y,X;" \::\: "
64 GOSUB 72
66 PRINT AT Y,X;"\::\##\::"
68 GOSUB 72
70 GOTO 78
72 FOR M=0 TO 5
74 NEXT M
76 RETURN
78 PRINT AT Y,X;" \## "
80 GOSUB 72
82 PRINT AT Y,X;" \,, "
84 GOSUB 72
86 GOSUB 72
88 PRINT AT Y,X;"   "
90 FOR M=0 TO 21
92 SCROLL
94 NEXT M
96 PRINT AT 2,2;"VOCE PERCORREU ";300-N;" KMS";AT 4,2;"FALTAVAM APENAS ";N;" KMS"
98 PRINT AT 4,2;"FALTAVAM APENAS ";N;" KMS"
100 PRINT AT 8,1;"DIGITE <NEWLINE> P/ NOVO JOGO"
102 LET A$=INKEY$
104 IF A$<>CHR$ 118 THEN GOTO 102
106 FOR M=0 TO 10
108 SCROLL
110 NEXT M
112 FAST
114 CLS
116 SLOW
118 RUN
120 LET A$="              \##\##                "
122 FOR M=14 TO 1 STEP -1
124 SCROLL
126 PRINT AT 21,0;A$
128 LET A$(M)="\##"
130 LET A$(14-M+15+2)="\##"
132 NEXT M
134 PRINT AT 18,5;"%G%U%E%R%R%A\##%N%A%S\##%E%S%T%R%E%L%A%S"
136 LET N=0
138 GOTO 90

