'- Crash , ZX-81 , Microcomputador Jogos , Página 88
'- status não informado pelo Digitador
'- Digitador desconhecido

10 REM                                         CRASH                   PARA LINHA SINCLAIR
20 LET C=0
30 GOSUB 260
40 CLS
50 LET A=0
60 LET C=0
70 LET S=-20
80 LET B=5
90 LET B=B+(INKEY$="8")-(INKEY$="5")
100 IF B=A OR B=13 THEN GOTO 170
110 SCROLL
120 PRINT "\##% % % % % % % % % % % % \##";AT 21,RND*11+1;"%H";AT 0,B;"%V";AT 1,B;
130 LET Z=PEEK (PEEK 16398+256*PEEK 16399)
140 IF Z=8 OR Z=173 THEN GOTO 170
150 LET S=S+1
160 GOTO 90
170 FOR W=1 TO 21
180 PRINT "%C%R%A%S%H"
190 NEXT W
200 IF S>C THEN LET C=S
210 PRINT AT 15,15;"PONTOS=";S;AT 16,15;"RECORD=";C
220 FOR L=0 TO 30
230 NEXT L
240 CLS
250 GOTO 30
260 PRINT AT 10,0;"DESEJA INSTRUCOES?(S/N)"
270 IF INKEY$="N" THEN RETURN
280 IF INKEY$="S" THEN GOTO 300
290 GOTO 270
300 CLS
310 PRINT TAB 11;"CRASH";TAB 11;"\''\''\''\''\''"
320 PRINT ,,"VOCE IA TRANQUILAMENT DIRIGINDO SEU CARRO QUANDO PERCEBEU QUE","HAVIA ENTRADO NA CONTRA-MAO DE UMA PERIGOSA AVENIDA."
330 PRINT "DESVIE DOS CARROS QUE VEM AO SEUENCONTRO, PROCURANDO NAO BATER."
340 PRINT ,,"APERTE QUALQUER TECLA."
350 IF INKEY$="" THEN GOTO 350
360 CLS
370 RETURN

